{
  "shell_port": 50745,
  "iopub_port": 55547,
  "stdin_port": 57193,
  "control_port": 36695,
  "hb_port": 46273,
  "ip": "127.0.0.1",
  "key": "5d47fe87-4aad933305feb7172763309e",
  "transport": "tcp",
  "signature_scheme": "hmac-sha256",
  "kernel_name": ""
}